BFS_NR,GEBIET_NAME,2021,2020,2019,2018,2017,2016,2015,2014,2013,2012,2011,2010,2009,2008,2007,2006,2005,2004,2003,2002,2001,2000,1999,1998,1997,1996,1995,1994,1993,1992,1991,1990,1989,1988,1987,1986,1985,1984,1983,1982,1981
1,Gesamtschweiz,13.6,13.5,13.4,13.3,13.2,13.,12.9,12.8,12.7,12.5,12.4,12.2,,,,,,,,,,,,,,,,,,,,,,,,,,,,,
17,Kanton St.Gallen,13.7,13.6,13.5,13.3,13.2,13.,12.8,12.6,12.5,12.2,12.,11.7,,,,,,,,,,,,,,,,,,,,,,,,,,,,,
230,Winterthur,11.4,11.4,11.3,11.3,11.4,11.3,11.4,11.4,11.5,11.5,11.5,0.,,,,,,,,,,,,,,,,,,,,,,,,,,,,,
261,Zürich,9.8,9.8,9.8,9.9,10.,10.1,10.2,10.3,10.5,10.6,10.7,0.,,,,,,,,,,,,,,,,,,,,,,,,,,,,,
351,Bern,11.7,11.7,11.7,11.6,11.5,11.5,11.6,11.6,11.6,11.7,11.8,0.,,,,,,,,,,,,,,,,,,,,,,,,,,,,,
371,Biel,12.5,12.4,12.,12.1,12.2,12.3,12.5,12.6,12.7,12.8,12.9,0.,,,,,,,,,,,,,,,,,,,,,,,,,,,,,
1061,Luzern,13.,13.,13.,13.,13.,13.,13.,13.,13.1,13.1,13.3,0.,,,,,,,,,,,,,,,,,,,,,,,,,,,,,
2701,Basel,12.7,12.7,12.6,12.6,12.6,12.6,12.7,12.8,12.8,12.8,13.,0.,,,,,,,,,,,,,,,,,,,,,,,,,,,,,
3203,Stadt St.Gallen,12.2,12.1,12.1,12.,12.,11.9,11.8,11.8,11.9,11.9,11.8,11.8,,,,,,,,,,,,,,,,,,,,,,,,,,,,,
5192,Lugano,15.,14.9,14.9,15.,15.,15.,15.1,15.1,15.2,15.1,15.,0.,,,,,,,,,,,,,,,,,,,,,,,,,,,,,
5586,Lausanne,9.7,9.7,9.8,9.8,9.8,9.9,10.1,10.2,10.2,10.3,10.4,0.,,,,,,,,,,,,,,,,,,,,,,,,,,,,,
6621,Genf,10.8,10.7,10.7,10.8,10.8,10.9,10.9,11.,11.,11.,10.9,0.,,,,,,,,,,,,,,,,,,,,,,,,,,,,,
10001,Kreis Centrum,11.5,11.3,11.2,11.,10.9,10.8,10.7,10.7,10.7,10.9,10.7,,,,,,,,,,,,,,,,,,,,,,,,,,,,,,
10002,Kreis Ost,13.6,13.6,13.5,13.4,13.5,13.5,13.5,13.6,13.7,13.6,13.6,,,,,,,,,,,,,,,,,,,,,,,,,,,,,,
10003,Kreis West,11.3,11.2,11.3,11.2,11.2,11.,10.9,10.9,10.8,10.8,11.,,,,,,,,,,,,,,,,,,,,,,,,,,,,,,
10011,Quartiergruppe Winkeln,12.9,12.9,12.8,12.6,13.1,13.2,12.7,12.7,12.3,12.4,12.1,,,,,,,,,,,,,,,,,,,,,,,,,,,,,,
10012,Quartiergruppe Bruggen,11.5,11.4,11.4,11.3,11.1,10.9,10.9,10.8,10.7,10.6,10.8,,,,,,,,,,,,,,,,,,,,,,,,,,,,,,
10013,Quartiergruppe Lachen,10.,9.9,10.2,10.,10.3,9.8,9.7,10.1,9.9,10.1,10.5,,,,,,,,,,,,,,,,,,,,,,,,,,,,,,
10021,Quartiergruppe Rosenberg,12.,12.2,11.1,10.8,10.6,10.9,10.6,10.5,10.8,10.8,11.1,,,,,,,,,,,,,,,,,,,,,,,,,,,,,,
10022,Quartiergruppe Riethüsli,12.2,11.7,11.8,11.1,10.5,10.4,10.2,9.8,10.1,10.,9.5,,,,,,,,,,,,,,,,,,,,,,,,,,,,,,
10023,Quartiergruppe St.Georgen,12.1,12.1,12.,12.,12.,11.7,11.6,11.5,11.5,11.6,11.5,,,,,,,,,,,,,,,,,,,,,,,,,,,,,,
10024,Quartiergruppe Innenstadt,10.1,9.6,9.5,10.4,10.6,10.6,10.4,11.,10.9,10.9,10.3,,,,,,,,,,,,,,,,,,,,,,,,,,,,,,
10025,Quartiergruppe St.Jakob,12.,12.2,12.4,12.1,12.2,12.2,11.8,12.,11.8,11.1,10.7,,,,,,,,,,,,,,,,,,,,,,,,,,,,,,
10026,Quartiergruppe Linsebühl-Dreilinden,10.2,9.6,9.6,9.4,9.6,9.3,9.7,9.6,9.7,10.7,10.8,,,,,,,,,,,,,,,,,,,,,,,,,,,,,,
10031,Quartiergruppe Rotmonten,16.2,16.8,16.2,16.2,16.9,16.7,17.,17.,16.6,16.1,16.6,,,,,,,,,,,,,,,,,,,,,,,,,,,,,,
10032,Quartiergruppe Langgass - Heiligkreuz,11.1,10.9,10.8,11.,10.9,11.3,10.8,10.9,11.2,11.2,11.2,,,,,,,,,,,,,,,,,,,,,,,,,,,,,,
10033,Quartiergruppe St.Fiden,11.1,11.4,11.,10.9,10.8,10.7,10.6,10.6,10.9,10.9,10.7,,,,,,,,,,,,,,,,,,,,,,,,,,,,,,
10034,Quartiergruppe Notkersegg,16.,16.5,16.8,16.5,17.5,16.8,16.7,18.1,18.5,18.1,17.7,,,,,,,,,,,,,,,,,,,,,,,,,,,,,,
10035,Quartiergruppe Neudorf,16.8,16.7,16.6,16.6,16.6,16.6,16.7,16.7,16.7,16.4,16.5,,,,,,,,,,,,,,,,,,,,,,,,,,,,,,
10101,Quartier Hafnersberg,25.8,22.2,21.6,18.9,16.3,17.6,17.6,21.2,19.2,16.7,15.1,,,,,,,,,,,,,,,,,,,,,,,,,,,,,,
10102,Quartier Breitfeld-Gründenmoos,,,,,,,,,,,,,,,,,,,,,,,,,,,,,,,,,,,,,,,,,
10103,Quartier Winkeln Nord-Industrie,12.7,11.7,12.4,11.1,11.,10.9,11.4,11.8,10.2,7.8,7.1,,,,,,,,,,,,,,,,,,,,,,,,,,,,,,
10104,Quartier Winkeln Süd,10.5,10.9,10.9,10.1,10.3,10.1,9.7,9.9,10.5,10.5,10.6,,,,,,,,,,,,,,,,,,,,,,,,,,,,,,
10105,Quartier Gübsensee,15.2,15.2,16.1,9.4,10.3,6.7,0.,0.,0.,3.1,3.4,,,,,,,,,,,,,,,,,,,,,,,,,,,,,,
10106,Quartier Chräzeren,14.3,14.1,14.,14.3,15.4,15.6,15.1,14.7,13.8,14.3,13.8,,,,,,,,,,,,,,,,,,,,,,,,,,,,,,
10107,Quartier Altenwegen,20.,24.2,18.9,21.4,16.3,18.8,17.8,19.1,16.3,12.,13.,,,,,,,,,,,,,,,,,,,,,,,,,,,,,,
10108,Quartier Sittertobel,8.,8.7,12.5,16.7,14.8,17.9,17.2,13.8,12.9,12.5,8.8,,,,,,,,,,,,,,,,,,,,,,,,,,,,,,
10109,Quartier Bruggen-Zürcherstrasse,11.2,10.4,9.9,9.3,9.,8.4,8.6,8.3,8.3,8.2,8.,,,,,,,,,,,,,,,,,,,,,,,,,,,,,,
10110,Quartier Boppartshof-Hinterberg,11.5,11.1,11.3,11.3,11.4,11.4,11.5,11.6,11.8,12.1,12.3,,,,,,,,,,,,,,,,,,,,,,,,,,,,,,
10111,Quartier Haggen-Oberstrasse-Langweid,12.1,12.,12.4,12.6,11.9,11.8,11.5,11.3,10.7,10.5,10.7,,,,,,,,,,,,,,,,,,,,,,,,,,,,,,
10112,Quartier Moos-Waldacker-Lerchenfeld,11.2,11.7,11.7,11.6,11.7,11.7,11.8,11.7,11.3,11.,11.5,,,,,,,,,,,,,,,,,,,,,,,,,,,,,,
10113,Quartier Vonwil-Lachen-Schoren,10.,9.9,10.2,10.,10.3,9.8,9.7,10.1,9.9,10.1,10.5,,,,,,,,,,,,,,,,,,,,,,,,,,,,,,
10201,Quartier Hölzli-Joosrüti,12.,13.3,12.3,12.8,12.4,13.,11.7,11.7,12.2,12.1,12.8,,,,,,,,,,,,,,,,,,,,,,,,,,,,,,
10202,Quartier Rosenberg-Kreuzbleiche,12.,11.9,10.8,10.3,10.1,10.4,10.3,10.2,10.4,10.5,10.6,,,,,,,,,,,,,,,,,,,,,,,,,,,,,,
10203,Quartier Riethüsli,12.2,11.7,11.8,11.1,10.5,10.4,10.2,9.8,10.1,10.,9.5,,,,,,,,,,,,,,,,,,,,,,,,,,,,,,
10204,Quartier St.Georgen-Bernegg,10.5,10.,10.3,10.2,10.1,9.7,9.3,9.3,9.5,9.6,9.5,,,,,,,,,,,,,,,,,,,,,,,,,,,,,,
10205,Quartier St.Leonhard-Ost,8.4,8.1,9.7,10.5,10.5,9.6,9.6,10.4,11.2,11.8,10.4,,,,,,,,,,,,,,,,,,,,,,,,,,,,,,
10206,Quartier Altstadt,10.8,10.1,9.4,10.3,10.6,11.,10.7,11.2,10.7,10.5,10.3,,,,,,,,,,,,,,,,,,,,,,,,,,,,,,
10207,Quartier St.Jakob,12.,12.2,12.4,12.1,12.2,12.2,11.8,12.,11.8,11.1,10.7,,,,,,,,,,,,,,,,,,,,,,,,,,,,,,
10208,Quartier Linsebühl-Dreilinden,10.2,9.6,9.6,9.4,9.6,9.3,9.7,9.6,9.7,10.7,10.8,,,,,,,,,,,,,,,,,,,,,,,,,,,,,,
10209,Quartier St.Georgen-Bach,13.7,14.1,13.6,13.8,14.,13.8,13.9,13.8,13.5,13.8,13.6,,,,,,,,,,,,,,,,,,,,,,,,,,,,,,
10210,Quartier Stuelegg-Rüti,11.7,12.9,11.6,8.7,8.5,9.5,9.,9.1,9.1,6.3,6.5,,,,,,,,,,,,,,,,,,,,,,,,,,,,,,
10301,Quartier Rotmonten,16.2,16.8,16.2,16.2,16.9,16.7,17.,17.,16.6,16.1,16.6,,,,,,,,,,,,,,,,,,,,,,,,,,,,,,
10302,Quartier Langgass-Heiligkreuz,11.1,10.9,10.8,11.,10.9,11.3,10.8,10.9,11.2,11.2,11.2,,,,,,,,,,,,,,,,,,,,,,,,,,,,,,
10303,Quartier St.Fiden-Krontal,11.1,11.4,11.,10.9,10.8,10.7,10.6,10.6,10.9,10.9,10.7,,,,,,,,,,,,,,,,,,,,,,,,,,,,,,
10304,Quartier Notkersegg,15.8,15.2,15.3,14.9,15.4,14.9,15.2,16.1,16.7,17.5,17.2,,,,,,,,,,,,,,,,,,,,,,,,,,,,,,
10305,Quartier Kurzegg-Rank,9.7,9.6,11.4,9.,11.8,11.8,10.3,11.,10.9,10.5,10.3,,,,,,,,,,,,,,,,,,,,,,,,,,,,,,
10306,Quartier Hub-Schaugentobel,16.5,17.6,17.7,17.6,18.8,18.,17.9,19.5,20.,19.1,18.7,,,,,,,,,,,,,,,,,,,,,,,,,,,,,,
10307,Quartier Achslen-Wilen,15.3,15.5,15.3,15.4,15.6,16.,16.4,16.9,16.8,16.6,16.8,,,,,,,,,,,,,,,,,,,,,,,,,,,,,,
10308,Quartier Stephanshorn-Zil-Kesselhalden,18.4,18.,18.,17.9,17.6,17.3,17.,16.6,16.5,16.2,16.3,,,,,,,,,,,,,,,,,,,,,,,,,,,,,,